{
  "alloworigin": ["http://localhost:3000"],
  "allowedpaths": ["/(content|conf)/compool.*"],
  "supportedheaders": [
    "Authorization",
    "Origin",
    "Accept",
    "X-Requested-With",
    "Content-Type",
    "Access-Control-Request-Method",
    "Access-Control-Request-Headers"
  ],
  "supportedmethods": ["GET","HEAD"],
  "alloworiginregexp": []
}